{"pagination":{"totalItems":1000,"pageSize":9,"pageIndex":0,"pageCount":112,"startFrom":0},"newsFeed":[{"contentType":"News","id":"_content_chelseafcennews20201029frank-lampard-burnley-press-conf","type":"NewsCard","timestamp":"2020-10-29T14:32:00.000Z","orderDate":"2020-10-29T14:32:00.000Z","link":{"path":"/content/chelseafc/en/news/2020/10/29/frank-lampard-burnley-press-conference-team-news","type":"NewsCard","title":"Lampard latest on absent duo, working in a positive direction and Pulisic’s progression","url":"https://prod-content-cdn.chelseafc.com/content/chelseafc/en/news/2020/10/29/frank-lampard-burnley-press-conference-team-news.html","external":true,"target":"sameWindow","categories":[],"timestamp":"2020-10-29T14:32:00.000Z"},"template":"standard-article","path":"/content/chelseafc/en/news/2020/10/29/frank-lampard-burnley-press-conference-team-news","media":{"type":"image-component","image":{"type":"ImageCloudinary","alt":"Lampard","id":"chelsea-app/Lampard-press-conference-GettyImages-1229237256","gravity":"auto","aspectRatio":1.5,"cropMode":"fill"}},"content":"Lampard latest on absent duo, working in a positive direction and Pulisic’s progression","publishDate":"2020-10-29T14:32:00.000Z","url":"https://prod-content-cdn.chelseafc.com/content/chelseafc/en/news/2020/10/29/frank-lampard-burnley-press-conference-team-news.html","readTimeInMins":8,"tags":[{"title":"Premier League","namespace":"content-tag:","id":"content-tag_competition_first-team-competitions_premier-league"},{"title":"Men","namespace":"content-tag:","id":"content-tag_team_men"},{"title":"Burnley","namespace":"content-tag:","id":"content-tag_team_opposition-teams_burnley"},{"title":"Frank Lampard","namespace":"content-tag:","id":"content-tag_person_former-players_frank-lampard"}],"date":"2020-10-29T14:32:00.000Z","description":"Frank Lampard has reported no new injury concerns following our midweek exertions in Russia as preparations quickly begin ahead of our Saturday afternoon trip to Burnley in the Premier League.","matchId":2128347},{"contentType":"Columnist","id":"_content_chelseafcennews20201029giles-smith--hang-on---were-thos","type":"NewsCard","timestamp":"2020-10-29T13:02:00.000Z","orderDate":"2020-10-29T13:02:00.000Z","link":{"path":"/content/chelseafc/en/news/2020/10/29/giles-smith--hang-on---were-those-fans-i-saw-","type":"NewsCard","title":"Giles Smith: Hang on - were those fans I saw?","url":"https://prod-content-cdn.chelseafc.com/content/chelseafc/en/news/2020/10/29/giles-smith--hang-on---were-those-fans-i-saw-.html","external":true,"target":"sameWindow","categories":[],"timestamp":"2020-10-29T13:02:00.000Z"},"template":"opinion-article","path":"/content/chelseafc/en/news/2020/10/29/giles-smith--hang-on---were-those-fans-i-saw-","media":{"type":"image-component","image":{"type":"ImageCloudinary","alt":"Chelsea fans in Krasnodar","id":"editorial/news/2020/10/chelsea-fans-krasnodar","gravity":"auto","aspectRatio":1.5793358,"cropMode":"fill"}},"content":"Giles Smith: Hang on - were those fans I saw?","publishDate":"2020-10-29T13:02:00.000Z","url":"https://prod-content-cdn.chelseafc.com/content/chelseafc/en/news/2020/10/29/giles-smith--hang-on---were-those-fans-i-saw-.html","readTimeInMins":9,"tags":[{"title":"Giles Smith","namespace":"content-tag:","id":"content-tag_person_other-people_giles-smith"},{"title":"Column","namespace":"content-tag:","id":"content-tag_custom_column"}],"author":{"type":"profile","firstName":"Giles","lastName":"Smith","description":"Giles Smith has been giving a supporter’s eye view on all matters Chelsea in a weekly column since 2006. A Matthew Harding Stand upper tier season ticket holders, he has been a supporter since 1970 and was briefly the proud sponsor of Gareth Hall's shorts. A former Sports Columnist of the Year, writes for the Times, and has appeared in many British publications and is the author of two books: 'Lost in Music', an autobiographical account of his failure to become a globe-girdling rock star, and 'Midnight In the Garden of Evel Kneivel', a book about sport on television. His column on chelseafc.com will be back for the new season. ","image":{"type":"ImageCloudinary","alt":" ","id":"editorial/blogs-and-columns/giles_smith_profile_080","gravity":"face","aspectRatio":1.1660777,"cropMode":"fill"}},"date":"2020-10-29T13:02:00.000Z","description":"It’s approaching eight months since Chelsea season ticket holder Giles Smith last took his seat in the Matthew Harding Upper, but, watching our game in Krasnodar on television, he noticed a most alien concept off the pitch as the Blues ran riot on it…","matchId":2170475},{"contentType":"Analysis","id":"_content_chelseafcennews20201029timo-werner-reflects-on-resilien","type":"NewsCard","timestamp":"2020-10-29T12:00:00.000Z","orderDate":"2020-10-29T12:00:00.000Z","link":{"path":"/content/chelseafc/en/news/2020/10/29/timo-werner-reflects-on-resilience-shown-to-withstand-pressure-a","type":"NewsCard","title":"Timo Werner reflects on resilience shown to withstand pressure and penalty-taking options","url":"https://prod-content-cdn.chelseafc.com/content/chelseafc/en/news/2020/10/29/timo-werner-reflects-on-resilience-shown-to-withstand-pressure-a.html","external":true,"target":"sameWindow","categories":[],"timestamp":"2020-10-29T12:00:00.000Z"},"template":"standard-article","path":"/content/chelseafc/en/news/2020/10/29/timo-werner-reflects-on-resilience-shown-to-withstand-pressure-a","media":{"type":"image-component","image":{"type":"ImageCloudinary","alt":"Werner celebrates his goal against Krasnodar","id":"editorial/news/2020/10/Werner-celebrates-Krasnodar-a","gravity":"north","aspectRatio":1.5496032,"cropMode":"fill"},"caption":"Werner celebrates his goal against Krasnodar"},"content":"Timo Werner reflects on resilience shown to withstand pressure and penalty-taking options","publishDate":"2020-10-29T12:00:00.000Z","url":"https://prod-content-cdn.chelseafc.com/content/chelseafc/en/news/2020/10/29/timo-werner-reflects-on-resilience-shown-to-withstand-pressure-a.html","readTimeInMins":10,"tags":[{"title":"Timo Werner","namespace":"content-tag:","id":"content-tag_person_player_timo-werner"},{"title":"Men","namespace":"content-tag:","id":"content-tag_team_men"},{"title":"Champions League","namespace":"content-tag:","id":"content-tag_competition_first-team-competitions_champions-league"}],"date":"2020-10-29T12:00:00.000Z","description":"Timo Werner’s first Champions League goal for Chelsea helped the Blues to a convincing victory in Russia on Wednesday evening, although the German insisted afterwards that the 4-0 final scoreline perhaps did not fully reflect the stubborn test provided by Krasnodar.","matchId":2170475},{"contentType":"Competitions","id":"_content_chelseafcennews20201029high-scoring-night-for-play-pred","type":"NewsCard","timestamp":"2020-10-29T16:43:00.000Z","orderDate":"2020-10-29T11:30:00.000Z","link":{"path":"/content/chelseafc/en/news/2020/10/29/high-scoring-night-for-play-predictor-fans","type":"NewsCard","title":"High-scoring night for Play Predictor fans","url":"https://prod-content-cdn.chelseafc.com/content/chelseafc/en/news/2020/10/29/high-scoring-night-for-play-predictor-fans.html","external":true,"target":"sameWindow","categories":[],"timestamp":"2020-10-29T16:43:00.000Z"},"template":"standard-article","path":"/content/chelseafc/en/news/2020/10/29/high-scoring-night-for-play-predictor-fans","media":{"type":"image-component","image":{"type":"ImageCloudinary","alt":"Werner and Pulisic","id":"editorial/news/2020/10/Werner_Pulisic_GettyImages-1282730052","gravity":"auto","aspectRatio":1.5368924,"cropMode":"fill"}},"content":"High-scoring night for Play Predictor fans","publishDate":"2020-10-29T16:43:00.000Z","url":"https://prod-content-cdn.chelseafc.com/content/chelseafc/en/news/2020/10/29/high-scoring-night-for-play-predictor-fans.html","readTimeInMins":5,"tags":[{"title":"Champions League","namespace":"content-tag:","id":"content-tag_competition_first-team-competitions_champions-league"},{"title":"Play Predictor","namespace":"content-tag:","id":"content-tag_features_play-predictor"}],"date":"2020-10-29T16:43:00.000Z","description":"There were plenty of goals on the pitch for Chelsea and plenty of points off it for Blues fans on Play Predictor on Wednesday thanks to our 4-0 victory over Krasnodar.","matchId":2170475},{"contentType":"Analysis","id":"_content_chelseafcennews20201029the-debrief--all-round-havertz-a","type":"NewsCard","timestamp":"2020-10-29T11:22:00.000Z","orderDate":"2020-10-29T11:22:00.000Z","link":{"path":"/content/chelseafc/en/news/2020/10/29/the-debrief--all-round-havertz-and-the-wizardry-of-ziyech-","type":"NewsCard","title":"The Debrief: All-round Havertz and the wizardry of Ziyech ","url":"https://prod-content-cdn.chelseafc.com/content/chelseafc/en/news/2020/10/29/the-debrief--all-round-havertz-and-the-wizardry-of-ziyech-.html","external":true,"target":"sameWindow","categories":[],"timestamp":"2020-10-29T11:22:00.000Z"},"template":"standard-article","path":"/content/chelseafc/en/news/2020/10/29/the-debrief--all-round-havertz-and-the-wizardry-of-ziyech-","media":{"type":"image-component","image":{"type":"ImageCloudinary","alt":"The Debrief","id":"editorial/news/2020/10/debrief-graphic-web-krasnodar-away","gravity":"auto","aspectRatio":1.7777778,"cropMode":"fill"}},"content":"The Debrief: All-round Havertz and the wizardry of Ziyech ","publishDate":"2020-10-29T11:22:00.000Z","url":"https://prod-content-cdn.chelseafc.com/content/chelseafc/en/news/2020/10/29/the-debrief--all-round-havertz-and-the-wizardry-of-ziyech-.html","readTimeInMins":11,"tags":[{"title":"Kai Havertz","namespace":"content-tag:","id":"content-tag_person_player_kai-havertz"},{"title":"Men","namespace":"content-tag:","id":"content-tag_team_men"},{"title":"Statistics","namespace":"content-tag:","id":"content-tag_custom_statistics"},{"title":"Hakim Ziyech","namespace":"content-tag:","id":"content-tag_person_player_hakim-ziyech"},{"title":"Champions League","namespace":"content-tag:","id":"content-tag_competition_first-team-competitions_champions-league"}],"date":"2020-10-29T11:22:00.000Z","description":"Our forensic look at the statistics from last night’s victory away to Krasnodar brings to light the impact Kai Havertz and Hakim Ziyech had on our attacking play…","matchId":2170475},{"contentType":"Match Preview","id":"_content_chelseafcennews20201029youth-cup-preview--tino-anjorin-","type":"NewsCard","timestamp":"2020-10-29T12:00:00.000Z","orderDate":"2020-10-29T11:20:00.000Z","link":{"path":"/content/chelseafc/en/news/2020/10/29/youth-cup-preview--tino-anjorin--i-hope-i-can-lead-by-example-","type":"NewsCard","title":"Youth Cup semi-final preview: Anjorin hoping to lead by example","url":"https://prod-content-cdn.chelseafc.com/content/chelseafc/en/news/2020/10/29/youth-cup-preview--tino-anjorin--i-hope-i-can-lead-by-example-.html","external":true,"target":"sameWindow","categories":[],"timestamp":"2020-10-29T12:00:00.000Z"},"template":"standard-article","path":"/content/chelseafc/en/news/2020/10/29/youth-cup-preview--tino-anjorin--i-hope-i-can-lead-by-example-","media":{"type":"image-component","image":{"type":"ImageCloudinary","alt":"Tino Anjorin","id":"editorial/news/2020/10/Anjorin-celebration-derby","gravity":"auto","aspectRatio":1.5002143,"cropMode":"fill","isFullScale":true}},"content":"Youth Cup semi-final preview: Anjorin hoping to lead by example","publishDate":"2020-10-29T12:00:00.000Z","url":"https://prod-content-cdn.chelseafc.com/content/chelseafc/en/news/2020/10/29/youth-cup-preview--tino-anjorin--i-hope-i-can-lead-by-example-.html","readTimeInMins":12,"tags":[{"title":"Academy","namespace":"content-tag:","id":"content-tag_team_academy"},{"title":"Under 18's","namespace":"content-tag:","id":"content-tag_team_under-18-s"},{"title":"U18 - FA Youth Cup","namespace":"content-tag:","id":"content-tag_competition_academy-competitions_fa-youth-cup"}],"date":"2020-10-29T12:00:00.000Z","description":"On Friday night at St George's Park, the national football centre, Chelsea Under-18s take on Manchester United for a place in the final of the resumed 2019/20 FA Youth Cup. You can watch how the team get on live on BT Sport, kick-off 7:45pm.","matchId":2061851},{"contentType":"Club Partners","id":"_content_chelseafcennews20201029lampard-launches-season-two-of-h","type":"NewsCard","timestamp":"2020-10-29T16:00:00.000Z","orderDate":"2020-10-29T09:44:00.000Z","link":{"path":"/content/chelseafc/en/news/2020/10/29/lampard-launches-season-two-of-hyundai-fc","type":"NewsCard","title":"Lampard launches season two of Hyundai FC","url":"https://prod-content-cdn.chelseafc.com/content/chelseafc/en/news/2020/10/29/lampard-launches-season-two-of-hyundai-fc.html","external":true,"target":"sameWindow","categories":[],"timestamp":"2020-10-29T16:00:00.000Z"},"template":"cope-article","path":"/content/chelseafc/en/news/2020/10/29/lampard-launches-season-two-of-hyundai-fc","media":{"type":"image-component","image":{"type":"ImageCloudinary","alt":" Hyundai FC","id":"editorial/news/2020/10/HyundaiFC_1","gravity":"auto","aspectRatio":1.5,"cropMode":"fill"}},"content":"Lampard launches season two of Hyundai FC","publishDate":"2020-10-29T16:00:00.000Z","url":"https://prod-content-cdn.chelseafc.com/content/chelseafc/en/news/2020/10/29/lampard-launches-season-two-of-hyundai-fc.html","readTimeInMins":8,"tags":[{"title":"Chelsea Foundation","namespace":"content-tag:","id":"content-tag_custom_chelsea-foundation"},{"title":"Hyundai","namespace":"content-tag:","id":"content-tag_Partners_hyundai"},{"title":"Frank Lampard","namespace":"content-tag:","id":"content-tag_person_former-players_frank-lampard"}],"date":"2020-10-29T16:00:00.000Z","description":"Frank Lampard joined 11 young grassroots footballers online to celebrate the start of the second season of the Hyundai FC programme."},{"contentType":"News","id":"_content_chelseafcennews20201029hudson-odoi--champions-league-go","type":"NewsCard","timestamp":"2020-10-29T04:39:00.000Z","orderDate":"2020-10-29T04:39:00.000Z","link":{"path":"/content/chelseafc/en/news/2020/10/29/hudson-odoi--champions-league-goals-were-deserved","type":"NewsCard","title":"Hudson-Odoi: Champions League goals were deserved","url":"https://prod-content-cdn.chelseafc.com/content/chelseafc/en/news/2020/10/29/hudson-odoi--champions-league-goals-were-deserved.html","external":true,"target":"sameWindow","categories":[],"timestamp":"2020-10-29T04:39:00.000Z"},"template":"cope-article","path":"/content/chelseafc/en/news/2020/10/29/hudson-odoi--champions-league-goals-were-deserved","media":{"type":"image-component","image":{"type":"ImageCloudinary","alt":" Hudson-Odoi's goal","id":"editorial/match-reports/2020-21/krasnodar-away/krasnodar_away_first-goal","gravity":"auto","aspectRatio":1.5001795,"cropMode":"fill"}},"content":"Hudson-Odoi: Champions League goals were deserved","publishDate":"2020-10-29T04:39:00.000Z","url":"https://prod-content-cdn.chelseafc.com/content/chelseafc/en/news/2020/10/29/hudson-odoi--champions-league-goals-were-deserved.html","readTimeInMins":6,"tags":[{"title":"Callum Hudson-Odoi","namespace":"content-tag:","id":"content-tag_person_player_calum-hudson-odoi"},{"title":"Men","namespace":"content-tag:","id":"content-tag_team_men"},{"title":"Champions League","namespace":"content-tag:","id":"content-tag_competition_first-team-competitions_champions-league"}],"date":"2020-10-29T04:39:00.000Z","description":"It was not the perfect performance in Russia on Wednesday night reckoned opening goalscorer Callum Hudson-Odoi when he spoke after the game, but the 4-0 result showed the players carried out Frank Lampard’s game plan well."},{"contentType":"News","id":"_content_chelseafcennews20201029rennes-programme-available-now--","type":"NewsCard","timestamp":"2020-10-29T09:49:00.000Z","orderDate":"2020-10-29T00:49:00.000Z","link":{"path":"/content/chelseafc/en/news/2020/10/29/rennes-programme-available-now--featuring-kai-havertz-exclusive","type":"NewsCard","title":"Rennes programme available now, featuring Kai Havertz exclusive","url":"https://prod-content-cdn.chelseafc.com/content/chelseafc/en/news/2020/10/29/rennes-programme-available-now--featuring-kai-havertz-exclusive.html","external":true,"target":"sameWindow","categories":[],"timestamp":"2020-10-29T09:49:00.000Z"},"template":"cope-article","path":"/content/chelseafc/en/news/2020/10/29/rennes-programme-available-now--featuring-kai-havertz-exclusive","media":{"type":"image-component","image":{"type":"ImageCloudinary","alt":" Havertz","id":"editorial/news/2020/10/havertz-stock","gravity":"auto","aspectRatio":1.4998333,"cropMode":"fill"}},"content":"Rennes programme available now, featuring Kai Havertz exclusive","publishDate":"2020-10-29T09:49:00.000Z","url":"https://prod-content-cdn.chelseafc.com/content/chelseafc/en/news/2020/10/29/rennes-programme-available-now--featuring-kai-havertz-exclusive.html","readTimeInMins":7,"tags":[{"title":"Programmes","namespace":"content-tag:","id":"content-tag_custom_programmes"}],"date":"2020-10-29T09:49:00.000Z","description":"After the Blues’ thumping win over Krasnodar last night, our next Champions League matchday programme is available to order now, featuring an in-depth interview with new signing Kai Havertz.","matchId":2170486}]}