{
  "pagination": {
    "totalItems": 1000,
    "pageSize": 10,
    "pageIndex": 0,
    "pageCount": 100,
    "startFrom": 0
  },
  "newsFeed": [
    {
      "contentType": "Interview",
      "id": "_content_chelseafcennews20211209werner--i-am-happy-personally-bu",
      "type": "NewsCard",
      "timestamp": "2021-12-09T13:38:00.000Z",
      "orderDate": "2021-12-09T13:38:00.000Z",
      "link": {
        "path": "/content/chelseafc/en/news/2021/12/09/werner--i-am-happy-personally-but-disappointed-with-the-result",
        "type": "NewsCard",
        "title": "Werner: I am happy personally but disappointed with the result",
        "url": "https://prod-content-cdn.chelseafc.com/content/chelseafc/en/news/2021/12/09/werner--i-am-happy-personally-but-disappointed-with-the-result.html",
        "external": true,
        "target": "sameWindow",
        "categories": [],
        "timestamp": "2021-12-09T13:38:00.000Z"
      },
      "template": "standard-article",
      "path": "/content/chelseafc/en/news/2021/12/09/werner--i-am-happy-personally-but-disappointed-with-the-result",
      "media": {
        "type": "image-component",
        "image": {
          "type": "ImageCloudinary",
          "id": "editorial/match-reports/2021-22/ucl-zenit-away/zenit_away_lukaku_celebration",
          "gravity": "auto",
          "aspectRatio": 1.42892,
          "cropMode": "fill"
        }
      },
      "content": "Werner: I am happy personally but disappointed with the result",
      "publishDate": "2021-12-09T13:38:00.000Z",
      "url": "https://prod-content-cdn.chelseafc.com/content/chelseafc/en/news/2021/12/09/werner--i-am-happy-personally-but-disappointed-with-the-result.html",
      "readTimeInMins": 10,
      "tags": [
        {
          "title": "Timo Werner",
          "namespace": "content-tag:",
          "id": "content-tag_person_player_timo-werner"
        }
      ],
      "date": "2021-12-09T13:38:00.000Z",
      "description": "Chelsea forward Timo Werner has admitted he was ‘very happy’ with his personal performance against Zenit Saint Petersburg last night but a win would have made it much sweeter.",
      "matchId": 2244666
    },
    {
      "contentType": "History",
      "id": "_content_chelseafcennews20211209chelsea-s-quickest-champions-lea",
      "type": "NewsCard",
      "timestamp": "2021-12-09T14:44:00.000Z",
      "orderDate": "2021-12-09T13:04:00.000Z",
      "link": {
        "path": "/content/chelseafc/en/news/2021/12/09/chelsea-s-quickest-champions-league-goals",
        "type": "NewsCard",
        "title": "Chelsea’s quickest Champions League goals",
        "url": "https://prod-content-cdn.chelseafc.com/content/chelseafc/en/news/2021/12/09/chelsea-s-quickest-champions-league-goals.html",
        "external": true,
        "target": "sameWindow",
        "categories": [],
        "timestamp": "2021-12-09T14:44:00.000Z"
      },
      "template": "cope-article",
      "path": "/content/chelseafc/en/news/2021/12/09/chelsea-s-quickest-champions-league-goals",
      "media": {
        "type": "image-component",
        "image": {
          "type": "ImageCloudinary",
          "alt": " Timo Werner",
          "id": "editorial/match-reports/2021-22/ucl-zenit-away/zenit_away_werner_goal",
          "gravity": "auto",
          "aspectRatio": 1.500193,
          "cropMode": "fill",
          "isFullScale": true
        }
      },
      "content": "Chelsea’s quickest Champions League goals",
      "publishDate": "2021-12-09T14:44:00.000Z",
      "url": "https://prod-content-cdn.chelseafc.com/content/chelseafc/en/news/2021/12/09/chelsea-s-quickest-champions-league-goals.html",
      "readTimeInMins": 14,
      "tags": [
        {
          "title": "Timo Werner",
          "namespace": "content-tag:",
          "id": "content-tag_person_player_timo-werner"
        },
        {
          "title": "John Terry",
          "namespace": "content-tag:",
          "id": "content-tag_person_former-players_john-terry"
        },
        {
          "title": "Men",
          "namespace": "content-tag:",
          "id": "content-tag_team_men"
        },
        {
          "title": "Champions League",
          "namespace": "content-tag:",
          "id": "content-tag_competition_first-team-competitions_champions-league"
        }
      ],
      "date": "2021-12-09T14:44:00.000Z",
      "description": "With Timo Werner setting a new club record with Chelsea’s quickest-ever Champions League goal in our 3-3 draw with Zenit St Petersburg on Wednesday, we take a look at the other occasions when the Blues took less than five minutes to get on the scoresheet in the competition."
    },
    {
      "contentType": "Analysis",
      "id": "_content_chelseafcennews20211209the-debrief--fluctuating-fortune",
      "type": "NewsCard",
      "timestamp": "2021-12-09T11:33:00.000Z",
      "orderDate": "2021-12-09T11:33:00.000Z",
      "link": {
        "path": "/content/chelseafc/en/news/2021/12/09/the-debrief--fluctuating-fortunes-and-a-new-role-for-reece",
        "type": "NewsCard",
        "title": "The Debrief: Fluctuating fortunes and a new role for Reece",
        "url": "https://prod-content-cdn.chelseafc.com/content/chelseafc/en/news/2021/12/09/the-debrief--fluctuating-fortunes-and-a-new-role-for-reece.html",
        "external": true,
        "target": "sameWindow",
        "categories": [],
        "timestamp": "2021-12-09T11:33:00.000Z"
      },
      "template": "standard-article",
      "path": "/content/chelseafc/en/news/2021/12/09/the-debrief--fluctuating-fortunes-and-a-new-role-for-reece",
      "media": {
        "type": "image-component",
        "image": {
          "type": "ImageCloudinary",
          "alt": "The Debrief",
          "id": "editorial/news/2021/12/09/debrief-zenit-away-web",
          "gravity": "auto",
          "aspectRatio": 1.7777778,
          "cropMode": "fill"
        }
      },
      "content": "The Debrief: Fluctuating fortunes and a new role for Reece",
      "publishDate": "2021-12-09T11:33:00.000Z",
      "url": "https://prod-content-cdn.chelseafc.com/content/chelseafc/en/news/2021/12/09/the-debrief--fluctuating-fortunes-and-a-new-role-for-reece.html",
      "readTimeInMins": 13,
      "tags": [
        {
          "title": "Men",
          "namespace": "content-tag:",
          "id": "content-tag_team_men"
        },
        {
          "title": "Statistics",
          "namespace": "content-tag:",
          "id": "content-tag_custom_statistics"
        },
        {
          "title": "Champions League",
          "namespace": "content-tag:",
          "id": "content-tag_competition_first-team-competitions_champions-league"
        }
      ],
      "date": "2021-12-09T11:33:00.000Z",
      "description": "We pick the bones out of yesterday’s action-packed draw against Zenit St Petersburg with the aid of the match statistics…",
      "matchId": 2244666
    },
    {
      "contentType": "Interview",
      "id": "_content_chelseafcennews20211209azpilicueta--we-need-to-rediscov",
      "type": "NewsCard",
      "timestamp": "2021-12-09T04:30:00.000Z",
      "orderDate": "2021-12-09T04:30:00.000Z",
      "link": {
        "path": "/content/chelseafc/en/news/2021/12/09/azpilicueta--we-need-to-rediscover-our-solidity",
        "type": "NewsCard",
        "title": "Azpilicueta: We need to rediscover our solidity",
        "url": "https://prod-content-cdn.chelseafc.com/content/chelseafc/en/news/2021/12/09/azpilicueta--we-need-to-rediscover-our-solidity.html",
        "external": true,
        "target": "sameWindow",
        "categories": [],
        "timestamp": "2021-12-09T04:30:00.000Z"
      },
      "template": "cope-article",
      "path": "/content/chelseafc/en/news/2021/12/09/azpilicueta--we-need-to-rediscover-our-solidity",
      "media": {
        "type": "image-component",
        "image": {
          "type": "ImageCloudinary",
          "alt": " Cesar Azpilicueta",
          "id": "editorial/match-reports/2021-22/ucl-zenit-away/azpilicueta-zenit-away-2",
          "gravity": "north",
          "aspectRatio": 0.90230477,
          "cropMode": "fill"
        }
      },
      "content": "Azpilicueta: We need to rediscover our solidity",
      "publishDate": "2021-12-09T04:30:00.000Z",
      "url": "https://prod-content-cdn.chelseafc.com/content/chelseafc/en/news/2021/12/09/azpilicueta--we-need-to-rediscover-our-solidity.html",
      "readTimeInMins": 8,
      "tags": [
        {
          "title": "Cesar Azpilicueta",
          "namespace": "content-tag:",
          "id": "content-tag_person_player_cesar-azpilicueta"
        },
        {
          "title": "Men",
          "namespace": "content-tag:",
          "id": "content-tag_team_men"
        },
        {
          "title": "Champions League",
          "namespace": "content-tag:",
          "id": "content-tag_competition_first-team-competitions_champions-league"
        }
      ],
      "date": "2021-12-09T04:30:00.000Z",
      "description": "The pain of conceding decisive late goals in consecutive games will spur Chelsea on to improve defensively according to Cesar Azpilicueta, who is determined to see the Blues return to top form when Leeds visit Stamford Bridge.",
      "matchId": 2244666
    },
    {
      "contentType": "News",
      "id": "_content_chelseafcennews20211209blues-midfielder-jessie-fleming-",
      "type": "NewsCard",
      "timestamp": "2021-12-09T12:30:00.000Z",
      "orderDate": "2021-12-09T04:20:00.000Z",
      "link": {
        "path": "/content/chelseafc/en/news/2021/12/09/blues-midfielder-jessie-fleming-has-won-the-barclays-fa-wsl-play",
        "type": "NewsCard",
        "title": "Fleming named best WSL player in November",
        "url": "https://prod-content-cdn.chelseafc.com/content/chelseafc/en/news/2021/12/09/blues-midfielder-jessie-fleming-has-won-the-barclays-fa-wsl-play.html",
        "external": true,
        "target": "sameWindow",
        "categories": [],
        "timestamp": "2021-12-09T12:30:00.000Z"
      },
      "template": "cope-article",
      "path": "/content/chelseafc/en/news/2021/12/09/blues-midfielder-jessie-fleming-has-won-the-barclays-fa-wsl-play",
      "media": {
        "type": "image-component",
        "image": {
          "type": "ImageCloudinary",
          "alt": " ",
          "id": "editorial/women's-team/Jessie_Fleming_POTM",
          "gravity": "auto",
          "aspectRatio": 1.5022681,
          "cropMode": "fill"
        }
      },
      "content": "Fleming named best WSL player in November",
      "publishDate": "2021-12-09T12:30:00.000Z",
      "url": "https://prod-content-cdn.chelseafc.com/content/chelseafc/en/news/2021/12/09/blues-midfielder-jessie-fleming-has-won-the-barclays-fa-wsl-play.html",
      "readTimeInMins": 6,
      "tags": [
        {
          "title": "Women",
          "namespace": "content-tag:",
          "id": "content-tag_team_women"
        }
      ],
      "date": "2021-12-09T12:30:00.000Z",
      "description": "Blues midfielder Jessie Fleming has won the Barclays FA WSL Player of the Month award for November."
    },
    {
      "contentType": "News",
      "id": "_content_chelseafcennews20211209media-watch--james-compared-to-e",
      "type": "NewsCard",
      "timestamp": "2021-12-09T09:58:00.000Z",
      "orderDate": "2021-12-09T04:08:00.000Z",
      "link": {
        "path": "/content/chelseafc/en/news/2021/12/09/media-watch--james-compared-to-essien-juventus-stars-linked-fulham-carvalho-transfer-link",
        "type": "NewsCard",
        "title": "Media Watch: James compared to Chelsea icon Essien, two Juventus stars linked to Stamford Bridge and Fulham attacker Carvalho reportedly on the club's radar ",
        "url": "https://prod-content-cdn.chelseafc.com/content/chelseafc/en/news/2021/12/09/media-watch--james-compared-to-essien-juventus-stars-linked-fulham-carvalho-transfer-link.html",
        "external": true,
        "target": "sameWindow",
        "categories": [],
        "timestamp": "2021-12-09T09:58:00.000Z"
      },
      "template": "cope-article",
      "path": "/content/chelseafc/en/news/2021/12/09/media-watch--james-compared-to-essien-juventus-stars-linked-fulham-carvalho-transfer-link",
      "media": {
        "type": "image-component",
        "image": {
          "type": "ImageCloudinary",
          "alt": " ",
          "id": "chelsea-app/Deligt-media-watch--fdda5d76-d8f2-4125-ba27-2d3b3ce491cf",
          "gravity": "auto",
          "aspectRatio": 1.7777778,
          "cropMode": "fill"
        }
      },
      "content": "Media Watch: James compared to Chelsea icon Essien, two Juventus stars linked to Stamford Bridge and Fulham attacker Carvalho reportedly on the club's radar ",
      "publishDate": "2021-12-09T09:58:00.000Z",
      "url": "https://prod-content-cdn.chelseafc.com/content/chelseafc/en/news/2021/12/09/media-watch--james-compared-to-essien-juventus-stars-linked-fulham-carvalho-transfer-link.html",
      "readTimeInMins": 12,
      "tags": [
        {
          "title": "Reece James",
          "namespace": "content-tag:",
          "id": "content-tag_person_player_reece-james"
        },
        {
          "title": "Michael Essien",
          "namespace": "content-tag:",
          "id": "content-tag_person_former-players_michael-essien"
        }
      ],
      "date": "2021-12-09T09:58:00.000Z",
      "description": "In our look at the latest Chelsea-related news stories from the media, there is a brave comparison from a TV pundit, and two transfer stories linking the Blues to three players.."
    },
    {
      "contentType": "News",
      "id": "_content_chelseafcennews20211209hayes-praises-immense-effort-as-",
      "type": "NewsCard",
      "timestamp": "2021-12-09T08:43:00.000Z",
      "orderDate": "2021-12-09T03:43:00.000Z",
      "link": {
        "path": "/content/chelseafc/en/news/2021/12/09/hayes-praises-immense-effort-as-juve-cling-on-for-draw",
        "type": "NewsCard",
        "title": "Hayes praises immense effort as Blues edge closer to qualification",
        "url": "https://prod-content-cdn.chelseafc.com/content/chelseafc/en/news/2021/12/09/hayes-praises-immense-effort-as-juve-cling-on-for-draw.html",
        "external": true,
        "target": "sameWindow",
        "categories": [],
        "timestamp": "2021-12-09T08:43:00.000Z"
      },
      "template": "cope-article",
      "path": "/content/chelseafc/en/news/2021/12/09/hayes-praises-immense-effort-as-juve-cling-on-for-draw",
      "media": {
        "type": "image-component",
        "image": {
          "type": "ImageCloudinary",
          "alt": " ",
          "id": "editorial/women's-team/juventus_women_2",
          "gravity": "auto",
          "aspectRatio": 1.5024154,
          "cropMode": "fill"
        }
      },
      "content": "Hayes praises immense effort as Blues edge closer to qualification",
      "publishDate": "2021-12-09T08:43:00.000Z",
      "url": "https://prod-content-cdn.chelseafc.com/content/chelseafc/en/news/2021/12/09/hayes-praises-immense-effort-as-juve-cling-on-for-draw.html",
      "readTimeInMins": 12,
      "tags": [
        {
          "title": "Women",
          "namespace": "content-tag:",
          "id": "content-tag_team_women"
        },
        {
          "title": "Emma Hayes",
          "namespace": "content-tag:",
          "id": "content-tag_person_manager_emma-hayes"
        }
      ],
      "date": "2021-12-09T08:43:00.000Z",
      "description": "Chelsea manager Emma Hayes said her players were ‘immense’ as we moved to within a point of qualifying for the quarter-finals of the Women’s Champions League with a 0-0 draw against Juventus.",
      "matchId": 2245959
    },
    {
      "contentType": "Competitions",
      "id": "_content_chelseafcennews20211209chelsea-advent-calendar-quiz---d",
      "type": "NewsCard",
      "timestamp": "2021-12-09T10:30:00.000Z",
      "orderDate": "2021-12-09T03:30:00.000Z",
      "link": {
        "path": "/content/chelseafc/en/news/2021/12/09/chelsea-advent-calendar-quiz---day-9",
        "type": "NewsCard",
        "title": "Chelsea Advent Calendar Quiz - Day 9",
        "url": "https://prod-content-cdn.chelseafc.com/content/chelseafc/en/news/2021/12/09/chelsea-advent-calendar-quiz---day-9.html",
        "external": true,
        "target": "sameWindow",
        "categories": [],
        "timestamp": "2021-12-09T10:30:00.000Z"
      },
      "template": "cope-article",
      "path": "/content/chelseafc/en/news/2021/12/09/chelsea-advent-calendar-quiz---day-9",
      "media": {
        "type": "image-component",
        "image": {
          "type": "ImageCloudinary",
          "alt": " ",
          "id": "chelsea-app/App-Article-1920x1080-DEC-9",
          "gravity": "auto",
          "aspectRatio": 1.7777778,
          "cropMode": "fill"
        }
      },
      "content": "Chelsea Advent Calendar Quiz - Day 9",
      "publishDate": "2021-12-09T10:30:00.000Z",
      "url": "https://prod-content-cdn.chelseafc.com/content/chelseafc/en/news/2021/12/09/chelsea-advent-calendar-quiz---day-9.html",
      "readTimeInMins": 4,
      "tags": [
        {
          "title": "Fernando Torres",
          "namespace": "content-tag:",
          "id": "content-tag_person_former-players_fernando-torres"
        },
        {
          "title": "Gianluca Vialli",
          "namespace": "content-tag:",
          "id": "content-tag_person_former-players_gianluca-vialli"
        },
        {
          "title": "Romelu Lukaku",
          "namespace": "content-tag:",
          "id": "content-tag_person_former-players_romelu-lukaku"
        },
        {
          "title": "Jimmy Floyd Hasselbaink",
          "namespace": "content-tag:",
          "id": "content-tag_person_former-players_jimmy-floyd-hasselbaink"
        },
        {
          "title": "Hernan Crespo",
          "namespace": "content-tag:",
          "id": "content-tag_person_former-players_hernan-crespo"
        }
      ],
      "date": "2021-12-09T10:30:00.000Z",
      "description": "We are counting down to Christmas with our own take on a traditional advent calendar, as we bring you a new player-based quiz to enjoy every day, continuing today with a bumper crop of number nines."
    },
    {
      "contentType": "News",
      "id": "_content_chelseafcennews20211208tuchel-explains-why-chelsea-are-",
      "type": "NewsCard",
      "timestamp": "2021-12-08T21:06:00.000Z",
      "orderDate": "2021-12-08T21:06:00.000Z",
      "link": {
        "path": "/content/chelseafc/en/news/2021/12/08/tuchel-explains-why-chelsea-are-letting-leads-slip",
        "type": "NewsCard",
        "title": "Tuchel explains why Chelsea are letting leads slip",
        "url": "https://prod-content-cdn.chelseafc.com/content/chelseafc/en/news/2021/12/08/tuchel-explains-why-chelsea-are-letting-leads-slip.html",
        "external": true,
        "target": "sameWindow",
        "categories": [],
        "timestamp": "2021-12-08T21:06:00.000Z"
      },
      "template": "standard-article",
      "path": "/content/chelseafc/en/news/2021/12/08/tuchel-explains-why-chelsea-are-letting-leads-slip",
      "media": {
        "type": "image-component",
        "image": {
          "type": "ImageCloudinary",
          "alt": "Thomas Tuchel on the touchline",
          "id": "editorial/match-reports/2021-22/ucl-zenit-away/zenit_away_tuchel",
          "gravity": "auto",
          "aspectRatio": 1.4992504,
          "cropMode": "fill"
        }
      },
      "content": "Tuchel explains why Chelsea are letting leads slip",
      "publishDate": "2021-12-08T21:06:00.000Z",
      "url": "https://prod-content-cdn.chelseafc.com/content/chelseafc/en/news/2021/12/08/tuchel-explains-why-chelsea-are-letting-leads-slip.html",
      "readTimeInMins": 8,
      "tags": [
        {
          "title": "Thomas Tuchel",
          "namespace": "content-tag:",
          "id": "content-tag_person_manager_thomas-tuchel"
        },
        {
          "title": "Men",
          "namespace": "content-tag:",
          "id": "content-tag_team_men"
        },
        {
          "title": "Champions League",
          "namespace": "content-tag:",
          "id": "content-tag_competition_first-team-competitions_champions-league"
        }
      ],
      "date": "2021-12-08T21:06:00.000Z",
      "description": "After a topsy-turvy game in Russia in which Chelsea took a rapid lead, went behind, secured the lead again but were eventually pegged back in stoppage time for a 3-3 draw, Thomas Tuchel said he believes his players are lulled into a false sense of security when they go a goal up.",
      "matchId": 2244666
    },
    {
      "contentType": "Match Report",
      "id": "_content_chelseafcennews20211208match-report--zenit-st-petersbur",
      "type": "NewsCard",
      "timestamp": "2021-12-08T19:55:00.000Z",
      "orderDate": "2021-12-08T19:55:00.000Z",
      "link": {
        "path": "/content/chelseafc/en/news/2021/12/08/match-report--zenit-st-petersburg-vs-chelsea",
        "type": "NewsCard",
        "title": "Match Report: Zenit St Petersburg 3 Chelsea 3",
        "url": "https://prod-content-cdn.chelseafc.com/content/chelseafc/en/news/2021/12/08/match-report--zenit-st-petersburg-vs-chelsea.html",
        "external": true,
        "target": "sameWindow",
        "categories": [],
        "timestamp": "2021-12-08T19:55:00.000Z"
      },
      "template": "cope-article",
      "path": "/content/chelseafc/en/news/2021/12/08/match-report--zenit-st-petersburg-vs-chelsea",
      "media": {
        "type": "image-component",
        "image": {
          "type": "ImageCloudinary",
          "alt": " Timo Werner",
          "id": "editorial/match-reports/2021-22/ucl-zenit-away/werner-zenit-away",
          "gravity": "face",
          "aspectRatio": 1.5,
          "cropMode": "fill"
        }
      },
      "content": "Match Report: Zenit St Petersburg 3 Chelsea 3",
      "publishDate": "2021-12-08T19:55:00.000Z",
      "url": "https://prod-content-cdn.chelseafc.com/content/chelseafc/en/news/2021/12/08/match-report--zenit-st-petersburg-vs-chelsea.html",
      "readTimeInMins": 23,
      "tags": [
        {
          "title": "Men",
          "namespace": "content-tag:",
          "id": "content-tag_team_men"
        },
        {
          "title": "Champions League",
          "namespace": "content-tag:",
          "id": "content-tag_competition_first-team-competitions_champions-league"
        }
      ],
      "date": "2021-12-08T19:55:00.000Z",
      "description": "Timo Werner scored Chelsea’s fastest-ever Champions League goal and then looked to have secured top spot in Group H late on, but a 94th-minute Zenit equaliser means we will go into Monday’s last-16 draw as one of the unseeded teams.",
      "matchId": 2244666
    }
  ]
}
